{
	"process_id" : 13684,
	"version" : "2020.2.0a12",
	"app_path" : "C:/Program Files/Unity/Hub/Editor/2020.2.0a12/Editor/Unity.exe",
	"app_contents_path" : "C:/Program Files/Unity/Hub/Editor/2020.2.0a12/Editor/Data"
}