%YAML 1.1
%TAG !u! tag:unity3d.com,2011:
--- !u!29 &1
OcclusionCullingSettings:
  m_ObjectHideFlags: 0
  serializedVersion: 2
  m_OcclusionBakeSettings:
    smallestOccluder: 5
    smallestHole: 0.25
    backfaceThreshold: 100
  m_SceneGUID: 00000000000000000000000000000000
  m_OcclusionCullingData: {fileID: 0}
--- !u!104 &2
RenderSettings:
  m_ObjectHideFlags: 0
  serializedVersion: 9
  m_Fog: 0
  m_FogColor: {r: 0.5, g: 0.5, b: 0.5, a: 1}
  m_FogMode: 3
  m_FogDensity: 0.01
  m_LinearFogStart: 0
  m_LinearFogEnd: 300
  m_AmbientSkyColor: {r: 0.212, g: 0.227, b: 0.259, a: 1}
  m_AmbientEquatorColor: {r: 0.114, g: 0.125, b: 0.133, a: 1}
  m_AmbientGroundColor: {r: 0.047, g: 0.043, b: 0.035, a: 1}
  m_AmbientIntensity: 1
  m_AmbientMode: 0
  m_SubtractiveShadowColor: {r: 0.42, g: 0.478, b: 0.627, a: 1}
  m_SkyboxMaterial: {fileID: 10304, guid: 0000000000000000f000000000000000, type: 0}
  m_HaloStrength: 0.5
  m_FlareStrength: 1
  m_FlareFadeSpeed: 3
  m_HaloTexture: {fileID: 0}
  m_SpotCookie: {fileID: 10001, guid: 0000000000000000e000000000000000, type: 0}
  m_DefaultReflectionMode: 0
  m_DefaultReflectionResolution: 128
  m_ReflectionBounces: 1
  m_ReflectionIntensity: 1
  m_CustomReflection: {fileID: 0}
  m_Sun: {fileID: 0}
  m_IndirectSpecularColor: {r: 0, g: 0, b: 0, a: 1}
  m_UseRadianceAmbientProbe: 0
--- !u!157 &3
LightmapSettings:
  m_ObjectHideFlags: 0
  serializedVersion: 12
  m_GIWorkflowMode: 0
  m_GISettings:
    serializedVersion: 2
    m_BounceScale: 1
    m_IndirectOutputScale: 1
    m_AlbedoBoost: 1
    m_EnvironmentLightingMode: 0
    m_EnableBakedLightmaps: 1
    m_EnableRealtimeLightmaps: 1
  m_LightmapEditorSettings:
    serializedVersion: 12
    m_Resolution: 2
    m_BakeResolution: 40
    m_AtlasSize: 1024
    m_AO: 0
    m_AOMaxDistance: 1
    m_CompAOExponent: 0
    m_CompAOExponentDirect: 0
    m_ExtractAmbientOcclusion: 0
    m_Padding: 2
    m_LightmapParameters: {fileID: 0}
    m_LightmapsBakeMode: 1
    m_TextureCompression: 1
    m_FinalGather: 0
    m_FinalGatherFiltering: 1
    m_FinalGatherRayCount: 1024
    m_ReflectionCompression: 2
    m_MixedBakeMode: 1
    m_BakeBackend: 0
    m_PVRSampling: 1
    m_PVRDirectSampleCount: 32
    m_PVRSampleCount: 512
    m_PVRBounces: 2
    m_PVREnvironmentSampleCount: 512
    m_PVREnvironmentReferencePointCount: 2048
    m_PVRFilteringMode: 0
    m_PVRDenoiserTypeDirect: 0
    m_PVRDenoiserTypeIndirect: 0
    m_PVRDenoiserTypeAO: 0
    m_PVRFilterTypeDirect: 0
    m_PVRFilterTypeIndirect: 0
    m_PVRFilterTypeAO: 0
    m_PVREnvironmentMIS: 0
    m_PVRCulling: 1
    m_PVRFilteringGaussRadiusDirect: 1
    m_PVRFilteringGaussRadiusIndirect: 5
    m_PVRFilteringGaussRadiusAO: 2
    m_PVRFilteringAtrousPositionSigmaDirect: 0.5
    m_PVRFilteringAtrousPositionSigmaIndirect: 2
    m_PVRFilteringAtrousPositionSigmaAO: 1
    m_ExportTrainingData: 0
    m_TrainingDataDestination: TrainingData
    m_LightProbeSampleCountMultiplier: 4
  m_LightingDataAsset: {fileID: 0}
  m_LightingSettings: {fileID: 4890085278179872738, guid: 2aedad91c54002e41891771aae75d38e,
    type: 2}
--- !u!196 &4
NavMeshSettings:
  serializedVersion: 2
  m_ObjectHideFlags: 0
  m_BuildSettings:
    serializedVersion: 2
    agentTypeID: 0
    agentRadius: 0.5
    agentHeight: 2
    agentSlope: 45
    agentClimb: 0.4
    ledgeDropHeight: 0
    maxJumpAcrossDistance: 0
    minRegionArea: 2
    manualCellSize: 0
    cellSize: 0.16666667
    manualTileSize: 0
    tileSize: 256
    accuratePlacement: 0
    maxJobWorkers: 0
    preserveTilesOutsideBounds: 0
    debug:
      m_Flags: 0
  m_NavMeshData: {fileID: 0}
--- !u!1 &186919938 stripped
GameObject:
  m_CorrespondingSourceObject: {fileID: 129056, guid: d456a266d9bb2d743807012ccc683f9a,
    type: 3}
  m_PrefabInstance: {fileID: 1606296131}
  m_PrefabAsset: {fileID: 0}
--- !u!1 &392949013
GameObject:
  m_ObjectHideFlags: 0
  m_CorrespondingSourceObject: {fileID: 0}
  m_PrefabInstance: {fileID: 0}
  m_PrefabAsset: {fileID: 0}
  serializedVersion: 6
  m_Component:
  - component: {fileID: 392949018}
  - component: {fileID: 392949017}
  - component: {fileID: 392949015}
  - component: {fileID: 392949014}
  m_Layer: 0
  m_Name: Main Camera
  m_TagString: MainCamera
  m_Icon: {fileID: 0}
  m_NavMeshLayer: 0
  m_StaticEditorFlags: 0
  m_IsActive: 1
--- !u!81 &392949014
AudioListener:
  m_ObjectHideFlags: 0
  m_CorrespondingSourceObject: {fileID: 0}
  m_PrefabInstance: {fileID: 0}
  m_PrefabAsset: {fileID: 0}
  m_GameObject: {fileID: 392949013}
  m_Enabled: 1
--- !u!124 &392949015
Behaviour:
  m_ObjectHideFlags: 0
  m_CorrespondingSourceObject: {fileID: 0}
  m_PrefabInstance: {fileID: 0}
  m_PrefabAsset: {fileID: 0}
  m_GameObject: {fileID: 392949013}
  m_Enabled: 1
--- !u!20 &392949017
Camera:
  m_ObjectHideFlags: 0
  m_CorrespondingSourceObject: {fileID: 0}
  m_PrefabInstance: {fileID: 0}
  m_PrefabAsset: {fileID: 0}
  m_GameObject: {fileID: 392949013}
  m_Enabled: 1
  serializedVersion: 2
  m_ClearFlags: 2
  m_BackGroundColor: {r: 0.25552896, g: 0.40154544, b: 0.631, a: 0.019607844}
  m_projectionMatrixMode: 1
  m_GateFitMode: 2
  m_FOVAxisMode: 0
  m_SensorSize: {x: 36, y: 24}
  m_LensShift: {x: 0, y: 0}
  m_FocalLength: 50
  m_NormalizedViewPortRect:
    serializedVersion: 2
    x: 0
    y: 0
    width: 1
    height: 1
  near clip plane: 0.3
  far clip plane: 1000
  field of view: 60
  orthographic: 0
  orthographic size: 5
  m_Depth: -1
  m_CullingMask:
    serializedVersion: 2
    m_Bits: 4294967295
  m_RenderingPath: -1
  m_TargetTexture: {fileID: 0}
  m_TargetDisplay: 0
  m_TargetEye: 3
  m_HDR: 0
  m_AllowMSAA: 1
  m_AllowDynamicResolution: 0
  m_ForceIntoRT: 0
  m_OcclusionCulling: 1
  m_StereoConvergence: 10
  m_StereoSeparation: 0.022
--- !u!4 &392949018
Transform:
  m_ObjectHideFlags: 0
  m_CorrespondingSourceObject: {fileID: 0}
  m_PrefabInstance: {fileID: 0}
  m_PrefabAsset: {fileID: 0}
  m_GameObject: {fileID: 392949013}
  m_LocalRotation: {x: 0.1532638, y: 0.840584, z: -0.30778888, w: 0.41856286}
  m_LocalPosition: {x: 0.48965663, y: 6.470199, z: 2.05568}
  m_LocalScale: {x: 1, y: 1, z: 1}
  m_Children: []
  m_Father: {fileID: 0}
  m_RootOrder: 0
  m_LocalEulerAnglesHint: {x: 40.2216, y: 127.0588, z: 0.00029999999}
--- !u!1 &503555142 stripped
GameObject:
  m_CorrespondingSourceObject: {fileID: 172410, guid: d456a266d9bb2d743807012ccc683f9a,
    type: 3}
  m_PrefabInstance: {fileID: 1606296131}
  m_PrefabAsset: {fileID: 0}
--- !u!33 &503555143
MeshFilter:
  m_ObjectHideFlags: 0
  m_CorrespondingSourceObject: {fileID: 0}
  m_PrefabInstance: {fileID: 0}
  m_PrefabAsset: {fileID: 0}
  m_GameObject: {fileID: 503555142}
  m_Mesh: {fileID: 1959453266}
--- !u!23 &503555144
MeshRenderer:
  m_ObjectHideFlags: 0
  m_CorrespondingSourceObject: {fileID: 0}
  m_PrefabInstance: {fileID: 0}
  m_PrefabAsset: {fileID: 0}
  m_GameObject: {fileID: 503555142}
  m_Enabled: 1
  m_CastShadows: 1
  m_ReceiveShadows: 1
  m_DynamicOccludee: 1
  m_MotionVectors: 1
  m_LightProbeUsage: 1
  m_ReflectionProbeUsage: 1
  m_RayTracingMode: 2
  m_RayTraceProcedural: 0
  m_RenderingLayerMask: 1
  m_RendererPriority: 0
  m_Materials:
  - {fileID: 0}
  m_StaticBatchInfo:
    firstSubMesh: 0
    subMeshCount: 0
  m_StaticBatchRoot: {fileID: 0}
  m_ProbeAnchor: {fileID: 0}
  m_LightProbeVolumeOverride: {fileID: 0}
  m_ScaleInLightmap: 1
  m_ReceiveGI: 1
  m_PreserveUVs: 0
  m_IgnoreNormalsForChartDetection: 0
  m_ImportantGI: 0
  m_StitchLightmapSeams: 1
  m_SelectedEditorRenderState: 3
  m_MinimumChartSize: 4
  m_AutoUVMaxDistance: 0.5
  m_AutoUVMaxAngle: 89
  m_LightmapParameters: {fileID: 0}
  m_SortingLayerID: 0
  m_SortingLayer: 0
  m_SortingOrder: 0
  m_AdditionalVertexStreams: {fileID: 0}
--- !u!114 &503555145 stripped
MonoBehaviour:
  m_CorrespondingSourceObject: {fileID: 11438412, guid: d456a266d9bb2d743807012ccc683f9a,
    type: 3}
  m_PrefabInstance: {fileID: 1606296131}
  m_PrefabAsset: {fileID: 0}
  m_GameObject: {fileID: 503555142}
  m_Enabled: 1
  m_EditorHideFlags: 0
  m_Script: {fileID: 11500000, guid: 668f4dffd34221246ad078e09d5bbd37, type: 3}
  m_Name: 
  m_EditorClassIdentifier: 
--- !u!4 &503555146 stripped
Transform:
  m_CorrespondingSourceObject: {fileID: 438634, guid: d456a266d9bb2d743807012ccc683f9a,
    type: 3}
  m_PrefabInstance: {fileID: 1606296131}
  m_PrefabAsset: {fileID: 0}
--- !u!1 &556177895 stripped
GameObject:
  m_CorrespondingSourceObject: {fileID: 145026, guid: d456a266d9bb2d743807012ccc683f9a,
    type: 3}
  m_PrefabInstance: {fileID: 1606296131}
  m_PrefabAsset: {fileID: 0}
--- !u!1 &637803113
GameObject:
  m_ObjectHideFlags: 0
  m_CorrespondingSourceObject: {fileID: 0}
  m_PrefabInstance: {fileID: 0}
  m_PrefabAsset: {fileID: 0}
  serializedVersion: 6
  m_Component:
  - component: {fileID: 637803118}
  - component: {fileID: 637803117}
  - component: {fileID: 637803116}
  - component: {fileID: 637803115}
  - component: {fileID: 637803114}
  m_Layer: 2
  m_Name: Piece bf437b0e-2c92-482c-b835-9e779535e418
  m_TagString: Untagged
  m_Icon: {fileID: 0}
  m_NavMeshLayer: 0
  m_StaticEditorFlags: 0
  m_IsActive: 1
--- !u!114 &637803114
MonoBehaviour:
  m_ObjectHideFlags: 0
  m_CorrespondingSourceObject: {fileID: 0}
  m_PrefabInstance: {fileID: 0}
  m_PrefabAsset: {fileID: 0}
  m_GameObject: {fileID: 637803113}
  m_Enabled: 1
  m_EditorHideFlags: 0
  m_Script: {fileID: -1801618600, guid: 3636d2408c55ec54d86a07f87412edaa, type: 3}
  m_Name: 
  m_EditorClassIdentifier: 
  FrontPiece: {fileID: 0}
  BackPiece: {fileID: 0}
  FrontBandPoint:
    Origin: {x: 0, y: 0, z: 0}
    LocalShift: {x: 0, y: 0, z: 0}
    PositionInWorldSpace: {x: 11.35, y: 2.14, z: -1.17}
    Parent: {fileID: 556177895}
  BackBandPoint:
    Origin: {x: 0, y: 0, z: 0}
    LocalShift: {x: 0, y: 0, z: 0}
    PositionInWorldSpace: {x: 1.12, y: 2.121, z: -1.16}
    Parent: {fileID: 186919938}
  PrevFrontBandPoint: {x: 11.35, y: 2.14, z: -1.17}
  PrevBackBandPoint: {x: 1.12, y: 2.121, z: -1.16}
  _rope: {fileID: 503555145}
  _length: 10.230023
  _sections:
  - _array:
    - _vertex: {x: 0, y: 0, z: 0}
      _uv: {x: 0, y: 0}
      _normalCount: 0
      Normals:
      - {x: 0, y: 0, z: 0}
      - {x: 0, y: 0, z: 0}
      - {x: 0, y: 0, z: 0}
      - {x: 0, y: 0, z: 0}
      - {x: 0, y: 0, z: 0}
      - {x: 0, y: 0, z: 0}
      _averageNormal: {x: 0, y: 0, z: 0}
    - _vertex: {x: 0, y: 0, z: 0}
      _uv: {x: 0, y: 0}
      _normalCount: 0
      Normals:
      - {x: 0, y: 0, z: 0}
      - {x: 0, y: 0, z: 0}
      - {x: 0, y: 0, z: 0}
      - {x: 0, y: 0, z: 0}
      - {x: 0, y: 0, z: 0}
      - {x: 0, y: 0, z: 0}
      _averageNormal: {x: 0, y: 0, z: 0}
    - _vertex: {x: 0, y: 0, z: 0}
      _uv: {x: 0, y: 0}
      _normalCount: 0
      Normals:
      - {x: 0, y: 0, z: 0}
      - {x: 0, y: 0, z: 0}
      - {x: 0, y: 0, z: 0}
      - {x: 0, y: 0, z: 0}
      - {x: 0, y: 0, z: 0}
      - {x: 0, y: 0, z: 0}
      _averageNormal: {x: 0, y: 0, z: 0}
  - _array:
    - _vertex: {x: 0, y: 0, z: 0}
      _uv: {x: 0, y: 0}
      _normalCount: 0
      Normals:
      - {x: 0, y: 0, z: 0}
      - {x: 0, y: 0, z: 0}
      - {x: 0, y: 0, z: 0}
      - {x: 0, y: 0, z: 0}
      - {x: 0, y: 0, z: 0}
      - {x: 0, y: 0, z: 0}
      _averageNormal: {x: 0, y: 0, z: 0}
    - _vertex: {x: 0, y: 0, z: 0}
      _uv: {x: 0, y: 0}
      _normalCount: 0
      Normals:
      - {x: 0, y: 0, z: 0}
      - {x: 0, y: 0, z: 0}
      - {x: 0, y: 0, z: 0}
      - {x: 0, y: 0, z: 0}
      - {x: 0, y: 0, z: 0}
      - {x: 0, y: 0, z: 0}
      _averageNormal: {x: 0, y: 0, z: 0}
    - _vertex: {x: 0, y: 0, z: 0}
      _uv: {x: 0, y: 0}
      _normalCount: 0
      Normals:
      - {x: 0, y: 0, z: 0}
      - {x: 0, y: 0, z: 0}
      - {x: 0, y: 0, z: 0}
      - {x: 0, y: 0, z: 0}
      - {x: 0, y: 0, z: 0}
      - {x: 0, y: 0, z: 0}
      _averageNormal: {x: 0, y: 0, z: 0}
  _backSectionDistance: 0
  _maxDistance: 0
  SharedNodeIndex: 0
  _material: {fileID: 2100000, guid: 0f2bb564c6c8ea7478c650f9817c0b08, type: 2}
  DontReorganizeWhenDestroy: 0
  _baseProfile:
  - {x: 0.01725, y: -0.012599999, z: 0}
  - {x: -0.014249999, y: -0.012599999, z: 0}
  - {x: 0.0043499996, y: 0.0108, z: 0}
  _helpProfile:
  - {x: 0.01725, y: -0.012599999, z: 0}
  - {x: -0.014249999, y: -0.012599999, z: 0}
  - {x: 0.0043499996, y: 0.0108, z: 0}
--- !u!95 &637803115
Animator:
  serializedVersion: 3
  m_ObjectHideFlags: 0
  m_CorrespondingSourceObject: {fileID: 0}
  m_PrefabInstance: {fileID: 0}
  m_PrefabAsset: {fileID: 0}
  m_GameObject: {fileID: 637803113}
  m_Enabled: 0
  m_Avatar: {fileID: 9000000, guid: e1271f120bcf60c4fb4a8f277357ab3d, type: 3}
  m_Controller: {fileID: 0}
  m_CullingMode: 1
  m_UpdateMode: 0
  m_ApplyRootMotion: 1
  m_LinearVelocityBlending: 0
  m_WarningMessage: 
  m_HasTransformHierarchy: 1
  m_AllowConstantClipSamplingOptimization: 1
  m_KeepAnimatorControllerStateOnDisable: 0
--- !u!23 &637803116
MeshRenderer:
  m_ObjectHideFlags: 0
  m_CorrespondingSourceObject: {fileID: 0}
  m_PrefabInstance: {fileID: 0}
  m_PrefabAsset: {fileID: 0}
  m_GameObject: {fileID: 637803113}
  m_Enabled: 1
  m_CastShadows: 1
  m_ReceiveShadows: 1
  m_DynamicOccludee: 1
  m_MotionVectors: 1
  m_LightProbeUsage: 0
  m_ReflectionProbeUsage: 1
  m_RayTracingMode: 2
  m_RayTraceProcedural: 0
  m_RenderingLayerMask: 1
  m_RendererPriority: 0
  m_Materials:
  - {fileID: 1821467059}
  m_StaticBatchInfo:
    firstSubMesh: 0
    subMeshCount: 0
  m_StaticBatchRoot: {fileID: 0}
  m_ProbeAnchor: {fileID: 0}
  m_LightProbeVolumeOverride: {fileID: 0}
  m_ScaleInLightmap: 1
  m_ReceiveGI: 1
  m_PreserveUVs: 0
  m_IgnoreNormalsForChartDetection: 0
  m_ImportantGI: 0
  m_StitchLightmapSeams: 1
  m_SelectedEditorRenderState: 3
  m_MinimumChartSize: 4
  m_AutoUVMaxDistance: 0.5
  m_AutoUVMaxAngle: 89
  m_LightmapParameters: {fileID: 0}
  m_SortingLayerID: 0
  m_SortingLayer: 0
  m_SortingOrder: 0
  m_AdditionalVertexStreams: {fileID: 0}
--- !u!33 &637803117
MeshFilter:
  m_ObjectHideFlags: 0
  m_CorrespondingSourceObject: {fileID: 0}
  m_PrefabInstance: {fileID: 0}
  m_PrefabAsset: {fileID: 0}
  m_GameObject: {fileID: 637803113}
  m_Mesh: {fileID: 4300000, guid: e1271f120bcf60c4fb4a8f277357ab3d, type: 3}
--- !u!4 &637803118
Transform:
  m_ObjectHideFlags: 0
  m_CorrespondingSourceObject: {fileID: 0}
  m_PrefabInstance: {fileID: 0}
  m_PrefabAsset: {fileID: 0}
  m_GameObject: {fileID: 637803113}
  m_LocalRotation: {x: -0.0006563282, y: 0.707452, z: 0.0006569701, w: 0.7067609}
  m_LocalPosition: {x: 6.235, y: 2.1305, z: -1.165}
  m_LocalScale: {x: 0.15, y: 0.15, z: 34.10008}
  m_Children: []
  m_Father: {fileID: 503555146}
  m_RootOrder: 2
  m_LocalEulerAnglesHint: {x: -0.1061, y: 90.0559, z: 0}
--- !u!1 &924069835
GameObject:
  m_ObjectHideFlags: 0
  m_CorrespondingSourceObject: {fileID: 0}
  m_PrefabInstance: {fileID: 0}
  m_PrefabAsset: {fileID: 0}
  serializedVersion: 6
  m_Component:
  - component: {fileID: 924069837}
  - component: {fileID: 924069836}
  m_Layer: 0
  m_Name: GuiPanel
  m_TagString: Untagged
  m_Icon: {fileID: 0}
  m_NavMeshLayer: 0
  m_StaticEditorFlags: 0
  m_IsActive: 1
--- !u!114 &924069836
MonoBehaviour:
  m_ObjectHideFlags: 0
  m_CorrespondingSourceObject: {fileID: 0}
  m_PrefabInstance: {fileID: 0}
  m_PrefabAsset: {fileID: 0}
  m_GameObject: {fileID: 924069835}
  m_Enabled: 1
  m_EditorHideFlags: 0
  m_Script: {fileID: 11500000, guid: 30f2ec78e268a6043a85e340a69d3155, type: 3}
  m_Name: 
  m_EditorClassIdentifier: 
  Rope: {fileID: 503555142}
--- !u!4 &924069837
Transform:
  m_ObjectHideFlags: 0
  m_CorrespondingSourceObject: {fileID: 0}
  m_PrefabInstance: {fileID: 0}
  m_PrefabAsset: {fileID: 0}
  m_GameObject: {fileID: 924069835}
  m_LocalRotation: {x: 0, y: 0, z: 0, w: 1}
  m_LocalPosition: {x: 5.5980835, y: 1.0654297, z: -2.46875}
  m_LocalScale: {x: 1, y: 1, z: 1}
  m_Children: []
  m_Father: {fileID: 0}
  m_RootOrder: 1
  m_LocalEulerAnglesHint: {x: 0, y: 0, z: 0}
--- !u!1 &1025937448
GameObject:
  m_ObjectHideFlags: 0
  m_CorrespondingSourceObject: {fileID: 0}
  m_PrefabInstance: {fileID: 0}
  m_PrefabAsset: {fileID: 0}
  serializedVersion: 6
  m_Component:
  - component: {fileID: 1025937450}
  - component: {fileID: 1025937449}
  m_Layer: 0
  m_Name: Directional Light (1)
  m_TagString: Untagged
  m_Icon: {fileID: 0}
  m_NavMeshLayer: 0
  m_StaticEditorFlags: 0
  m_IsActive: 1
--- !u!108 &1025937449
Light:
  m_ObjectHideFlags: 0
  m_CorrespondingSourceObject: {fileID: 0}
  m_PrefabInstance: {fileID: 0}
  m_PrefabAsset: {fileID: 0}
  m_GameObject: {fileID: 1025937448}
  m_Enabled: 1
  serializedVersion: 10
  m_Type: 1
  m_Shape: 0
  m_Color: {r: 1, g: 0.95686275, b: 0.8392157, a: 1}
  m_Intensity: 1
  m_Range: 10
  m_SpotAngle: 30
  m_InnerSpotAngle: 21.80208
  m_CookieSize: 10
  m_Shadows:
    m_Type: 2
    m_Resolution: -1
    m_CustomResolution: -1
    m_Strength: 1
    m_Bias: 0.05
    m_NormalBias: 0.4
    m_NearPlane: 0.2
    m_CullingMatrixOverride:
      e00: 1
      e01: 0
      e02: 0
      e03: 0
      e10: 0
      e11: 1
      e12: 0
      e13: 0
      e20: 0
      e21: 0
      e22: 1
      e23: 0
      e30: 0
      e31: 0
      e32: 0
      e33: 1
    m_UseCullingMatrixOverride: 0
  m_Cookie: {fileID: 0}
  m_DrawHalo: 0
  m_Flare: {fileID: 0}
  m_RenderMode: 0
  m_CullingMask:
    serializedVersion: 2
    m_Bits: 4294967295
  m_RenderingLayerMask: 1
  m_Lightmapping: 4
  m_LightShadowCasterMode: 0
  m_AreaSize: {x: 1, y: 1}
  m_BounceIntensity: 1
  m_ColorTemperature: 6570
  m_UseColorTemperature: 0
  m_BoundingSphereOverride: {x: 0, y: 0, z: 0, w: 0}
  m_UseBoundingSphereOverride: 0
  m_UseViewFrustumForShadowCasterCull: 1
  m_ShadowRadius: 0
  m_ShadowAngle: 0
--- !u!4 &1025937450
Transform:
  m_ObjectHideFlags: 0
  m_CorrespondingSourceObject: {fileID: 0}
  m_PrefabInstance: {fileID: 0}
  m_PrefabAsset: {fileID: 0}
  m_GameObject: {fileID: 1025937448}
  m_LocalRotation: {x: 0.40821794, y: -0.23456973, z: 0.109381676, w: 0.87542605}
  m_LocalPosition: {x: 0, y: 3, z: 0}
  m_LocalScale: {x: 1, y: 1, z: 1}
  m_Children: []
  m_Father: {fileID: 0}
  m_RootOrder: 2
  m_LocalEulerAnglesHint: {x: 50, y: -30, z: 0}
--- !u!1001 &1606296131
PrefabInstance:
  m_ObjectHideFlags: 0
  serializedVersion: 2
  m_Modification:
    m_TransformParent: {fileID: 0}
    m_Modifications:
    - target: {fileID: 410398, guid: d456a266d9bb2d743807012ccc683f9a, type: 3}
      propertyPath: m_LocalPosition.x
      value: 1.12
      objectReference: {fileID: 0}
    - target: {fileID: 438634, guid: d456a266d9bb2d743807012ccc683f9a, type: 3}
      propertyPath: m_LocalPosition.x
      value: 0
      objectReference: {fileID: 0}
    - target: {fileID: 438634, guid: d456a266d9bb2d743807012ccc683f9a, type: 3}
      propertyPath: m_LocalPosition.y
      value: 0
      objectReference: {fileID: 0}
    - target: {fileID: 438634, guid: d456a266d9bb2d743807012ccc683f9a, type: 3}
      propertyPath: m_LocalPosition.z
      value: 0
      objectReference: {fileID: 0}
    - target: {fileID: 438634, guid: d456a266d9bb2d743807012ccc683f9a, type: 3}
      propertyPath: m_LocalRotation.x
      value: 0
      objectReference: {fileID: 0}
    - target: {fileID: 438634, guid: d456a266d9bb2d743807012ccc683f9a, type: 3}
      propertyPath: m_LocalRotation.y
      value: 0
      objectReference: {fileID: 0}
    - target: {fileID: 438634, guid: d456a266d9bb2d743807012ccc683f9a, type: 3}
      propertyPath: m_LocalRotation.z
      value: 0
      objectReference: {fileID: 0}
    - target: {fileID: 438634, guid: d456a266d9bb2d743807012ccc683f9a, type: 3}
      propertyPath: m_LocalRotation.w
      value: 1
      objectReference: {fileID: 0}
    - target: {fileID: 438634, guid: d456a266d9bb2d743807012ccc683f9a, type: 3}
      propertyPath: m_RootOrder
      value: 3
      objectReference: {fileID: 0}
    - target: {fileID: 492814, guid: d456a266d9bb2d743807012ccc683f9a, type: 3}
      propertyPath: m_LocalPosition.y
      value: 2.14
      objectReference: {fileID: 0}
    - target: {fileID: 492814, guid: d456a266d9bb2d743807012ccc683f9a, type: 3}
      propertyPath: m_LocalPosition.x
      value: 11.35
      objectReference: {fileID: 0}
    - target: {fileID: 11438412, guid: d456a266d9bb2d743807012ccc683f9a, type: 3}
      propertyPath: _initProfile.Array.size
      value: 3
      objectReference: {fileID: 0}
    - target: {fileID: 11438412, guid: d456a266d9bb2d743807012ccc683f9a, type: 3}
      propertyPath: _workProfile.Array.size
      value: 3
      objectReference: {fileID: 0}
    - target: {fileID: 11438412, guid: d456a266d9bb2d743807012ccc683f9a, type: 3}
      propertyPath: _baseProfile.Array.size
      value: 3
      objectReference: {fileID: 0}
    - target: {fileID: 11438412, guid: d456a266d9bb2d743807012ccc683f9a, type: 3}
      propertyPath: _triangulationPath1.Array.size
      value: 1
      objectReference: {fileID: 0}
    - target: {fileID: 11438412, guid: d456a266d9bb2d743807012ccc683f9a, type: 3}
      propertyPath: _triangulationPath2.Array.size
      value: 1
      objectReference: {fileID: 0}
    - target: {fileID: 11438412, guid: d456a266d9bb2d743807012ccc683f9a, type: 3}
      propertyPath: IgnoreLayer.m_Bits
      value: 4
      objectReference: {fileID: 0}
    - target: {fileID: 11438412, guid: d456a266d9bb2d743807012ccc683f9a, type: 3}
      propertyPath: _frontPiece
      value: 
      objectReference: {fileID: 637803114}
    - target: {fileID: 11438412, guid: d456a266d9bb2d743807012ccc683f9a, type: 3}
      propertyPath: _backPiece
      value: 
      objectReference: {fileID: 637803114}
    - target: {fileID: 11438412, guid: d456a266d9bb2d743807012ccc683f9a, type: 3}
      propertyPath: _pieceInstanceSize.x
      value: 0.19999999
      objectReference: {fileID: 0}
    - target: {fileID: 11438412, guid: d456a266d9bb2d743807012ccc683f9a, type: 3}
      propertyPath: _pieceInstanceSize.y
      value: 0.19999999
      objectReference: {fileID: 0}
    - target: {fileID: 11438412, guid: d456a266d9bb2d743807012ccc683f9a, type: 3}
      propertyPath: _pieceInstanceSize.z
      value: 0.29999998
      objectReference: {fileID: 0}
    - target: {fileID: 11438412, guid: d456a266d9bb2d743807012ccc683f9a, type: 3}
      propertyPath: _pieceInstanceRatio.x
      value: 0.15
      objectReference: {fileID: 0}
    - target: {fileID: 11438412, guid: d456a266d9bb2d743807012ccc683f9a, type: 3}
      propertyPath: _pieceInstanceRatio.y
      value: 0.15
      objectReference: {fileID: 0}
    - target: {fileID: 11438412, guid: d456a266d9bb2d743807012ccc683f9a, type: 3}
      propertyPath: _pieceInstanceRatio.z
      value: 3.3333335
      objectReference: {fileID: 0}
    - target: {fileID: 11438412, guid: d456a266d9bb2d743807012ccc683f9a, type: 3}
      propertyPath: _bendInstanceRatio
      value: 1
      objectReference: {fileID: 0}
    - target: {fileID: 11438412, guid: d456a266d9bb2d743807012ccc683f9a, type: 3}
      propertyPath: _initProfile.Array.data[0].x
      value: 0.575
      objectReference: {fileID: 0}
    - target: {fileID: 11438412, guid: d456a266d9bb2d743807012ccc683f9a, type: 3}
      propertyPath: _initProfile.Array.data[0].y
      value: -0.42
      objectReference: {fileID: 0}
    - target: {fileID: 11438412, guid: d456a266d9bb2d743807012ccc683f9a, type: 3}
      propertyPath: _initProfile.Array.data[1].x
      value: -0.475
      objectReference: {fileID: 0}
    - target: {fileID: 11438412, guid: d456a266d9bb2d743807012ccc683f9a, type: 3}
      propertyPath: _initProfile.Array.data[1].y
      value: -0.42
      objectReference: {fileID: 0}
    - target: {fileID: 11438412, guid: d456a266d9bb2d743807012ccc683f9a, type: 3}
      propertyPath: _initProfile.Array.data[2].x
      value: 0.145
      objectReference: {fileID: 0}
    - target: {fileID: 11438412, guid: d456a266d9bb2d743807012ccc683f9a, type: 3}
      propertyPath: _initProfile.Array.data[2].y
      value: 0.36
      objectReference: {fileID: 0}
    - target: {fileID: 11438412, guid: d456a266d9bb2d743807012ccc683f9a, type: 3}
      propertyPath: _workProfile.Array.data[0].x
      value: 0.01725
      objectReference: {fileID: 0}
    - target: {fileID: 11438412, guid: d456a266d9bb2d743807012ccc683f9a, type: 3}
      propertyPath: _workProfile.Array.data[0].y
      value: -0.012599999
      objectReference: {fileID: 0}
    - target: {fileID: 11438412, guid: d456a266d9bb2d743807012ccc683f9a, type: 3}
      propertyPath: _workProfile.Array.data[1].x
      value: -0.014249999
      objectReference: {fileID: 0}
    - target: {fileID: 11438412, guid: d456a266d9bb2d743807012ccc683f9a, type: 3}
      propertyPath: _workProfile.Array.data[1].y
      value: -0.012599999
      objectReference: {fileID: 0}
    - target: {fileID: 11438412, guid: d456a266d9bb2d743807012ccc683f9a, type: 3}
      propertyPath: _workProfile.Array.data[2].x
      value: 0.0043499996
      objectReference: {fileID: 0}
    - target: {fileID: 11438412, guid: d456a266d9bb2d743807012ccc683f9a, type: 3}
      propertyPath: _workProfile.Array.data[2].y
      value: 0.0108
      objectReference: {fileID: 0}
    - target: {fileID: 11438412, guid: d456a266d9bb2d743807012ccc683f9a, type: 3}
      propertyPath: _baseProfile.Array.data[0].x
      value: 0.01725
      objectReference: {fileID: 0}
    - target: {fileID: 11438412, guid: d456a266d9bb2d743807012ccc683f9a, type: 3}
      propertyPath: _baseProfile.Array.data[0].y
      value: -0.012599999
      objectReference: {fileID: 0}
    - target: {fileID: 11438412, guid: d456a266d9bb2d743807012ccc683f9a, type: 3}
      propertyPath: _baseProfile.Array.data[1].x
      value: -0.014249999
      objectReference: {fileID: 0}
    - target: {fileID: 11438412, guid: d456a266d9bb2d743807012ccc683f9a, type: 3}
      propertyPath: _baseProfile.Array.data[1].y
      value: -0.012599999
      objectReference: {fileID: 0}
    - target: {fileID: 11438412, guid: d456a266d9bb2d743807012ccc683f9a, type: 3}
      propertyPath: _baseProfile.Array.data[2].x
      value: 0.0043499996
      objectReference: {fileID: 0}
    - target: {fileID: 11438412, guid: d456a266d9bb2d743807012ccc683f9a, type: 3}
      propertyPath: _baseProfile.Array.data[2].y
      value: 0.0108
      objectReference: {fileID: 0}
    - target: {fileID: 11438412, guid: d456a266d9bb2d743807012ccc683f9a, type: 3}
      propertyPath: _triangulationPath1.Array.data[0].x
      value: 3
      objectReference: {fileID: 0}
    - target: {fileID: 11438412, guid: d456a266d9bb2d743807012ccc683f9a, type: 3}
      propertyPath: _triangulationPath1.Array.data[0].y
      value: 1
      objectReference: {fileID: 0}
    - target: {fileID: 11438412, guid: d456a266d9bb2d743807012ccc683f9a, type: 3}
      propertyPath: _triangulationPath1.Array.data[0].z
      value: 2
      objectReference: {fileID: 0}
    - target: {fileID: 11438412, guid: d456a266d9bb2d743807012ccc683f9a, type: 3}
      propertyPath: _triangulationPath2.Array.data[0].x
      value: 3
      objectReference: {fileID: 0}
    - target: {fileID: 11438412, guid: d456a266d9bb2d743807012ccc683f9a, type: 3}
      propertyPath: _triangulationPath2.Array.data[0].y
      value: 2
      objectReference: {fileID: 0}
    - target: {fileID: 11438412, guid: d456a266d9bb2d743807012ccc683f9a, type: 3}
      propertyPath: _triangulationPath2.Array.data[0].z
      value: 1
      objectReference: {fileID: 0}
    - target: {fileID: 11438412, guid: d456a266d9bb2d743807012ccc683f9a, type: 3}
      propertyPath: _prevVect.z
      value: 1
      objectReference: {fileID: 0}
    - target: {fileID: 11438412, guid: d456a266d9bb2d743807012ccc683f9a, type: 3}
      propertyPath: _anchoringMode
      value: 0
      objectReference: {fileID: 0}
    - target: {fileID: 11438412, guid: d456a266d9bb2d743807012ccc683f9a, type: 3}
      propertyPath: ExtendAxis
      value: 2
      objectReference: {fileID: 0}
    - target: {fileID: 11438412, guid: d456a266d9bb2d743807012ccc683f9a, type: 3}
      propertyPath: WrapDistance
      value: 0.0102
      objectReference: {fileID: 0}
    - target: {fileID: 13521984, guid: d456a266d9bb2d743807012ccc683f9a, type: 3}
      propertyPath: m_Enabled
      value: 0
      objectReference: {fileID: 0}
    - target: {fileID: 13591478, guid: d456a266d9bb2d743807012ccc683f9a, type: 3}
      propertyPath: m_Enabled
      value: 0
      objectReference: {fileID: 0}
    m_RemovedComponents:
    - {fileID: 5484008, guid: d456a266d9bb2d743807012ccc683f9a, type: 3}
    - {fileID: 5480680, guid: d456a266d9bb2d743807012ccc683f9a, type: 3}
  m_SourcePrefab: {fileID: 100100000, guid: d456a266d9bb2d743807012ccc683f9a, type: 3}
--- !u!21 &1821467059
Material:
  serializedVersion: 6
  m_ObjectHideFlags: 0
  m_CorrespondingSourceObject: {fileID: 0}
  m_PrefabInstance: {fileID: 0}
  m_PrefabAsset: {fileID: 0}
  m_Name: rope1
  m_Shader: {fileID: 13, guid: 0000000000000000f000000000000000, type: 0}
  m_ShaderKeywords: 
  m_LightmapFlags: 1
  m_EnableInstancingVariants: 0
  m_DoubleSidedGI: 0
  m_CustomRenderQueue: -1
  stringTagMap: {}
  disabledShaderPasses: []
  m_SavedProperties:
    serializedVersion: 3
    m_TexEnvs:
    - _BumpMap:
        m_Texture: {fileID: 2800000, guid: e8948d2213334984ebec2828ebb3bdde, type: 3}
        m_Scale: {x: 1, y: 1}
        m_Offset: {x: 0, y: 0}
    - _Illum:
        m_Texture: {fileID: 2800000, guid: ca271aa5dc03dea46ab0cfabbe1e82be, type: 3}
        m_Scale: {x: 1, y: 1}
        m_Offset: {x: 0, y: 0}
    - _MainTex:
        m_Texture: {fileID: 2800000, guid: ca271aa5dc03dea46ab0cfabbe1e82be, type: 3}
        m_Scale: {x: 1, y: 1}
        m_Offset: {x: 0, y: 0}
    - _ParallaxMap:
        m_Texture: {fileID: 0}
        m_Scale: {x: 1, y: 1}
        m_Offset: {x: 0, y: 0}
    m_Floats:
    - _Emission: 1
    - _EmissionLM: 0
    - _Parallax: 0.005
    - _Shininess: 0.08594952
    m_Colors:
    - _Color: {r: 0.23921569, g: 0.23921569, b: 0.23921569, a: 1}
    - _SpecColor: {r: 1, g: 1, b: 1, a: 1}
  m_BuildTextureStacks: []
--- !u!43 &1959453266
Mesh:
  m_ObjectHideFlags: 0
  m_CorrespondingSourceObject: {fileID: 0}
  m_PrefabInstance: {fileID: 0}
  m_PrefabAsset: {fileID: 0}
  m_Name: 
  serializedVersion: 10
  m_SubMeshes:
  - serializedVersion: 2
    firstByte: 0
    indexCount: 0
    topology: 0
    baseVertex: 0
    firstVertex: 0
    vertexCount: 0
    localAABB:
      m_Center: {x: 0, y: 0, z: 0}
      m_Extent: {x: 0, y: 0, z: 0}
  m_Shapes:
    vertices: []
    shapes: []
    channels: []
    fullWeights: []
  m_BindPose: []
  m_BoneNameHashes: 
  m_RootBoneNameHash: 0
  m_BonesAABB: []
  m_VariableBoneCountWeights:
    m_Data: 
  m_MeshCompression: 0
  m_IsReadable: 1
  m_KeepVertices: 1
  m_KeepIndices: 1
  m_IndexFormat: 0
  m_IndexBuffer: 
  m_VertexData:
    serializedVersion: 3
    m_VertexCount: 0
    m_Channels:
    - stream: 0
      offset: 0
      format: 0
      dimension: 0
    - stream: 0
      offset: 0
      format: 0
      dimension: 0
    - stream: 0
      offset: 0
      format: 0
      dimension: 0
    - stream: 0
      offset: 0
      format: 0
      dimension: 0
    - stream: 0
      offset: 0
      format: 0
      dimension: 0
    - stream: 0
      offset: 0
      format: 0
      dimension: 0
    - stream: 0
      offset: 0
      format: 0
      dimension: 0
    - stream: 0
      offset: 0
      format: 0
      dimension: 0
    - stream: 0
      offset: 0
      format: 0
      dimension: 0
    - stream: 0
      offset: 0
      format: 0
      dimension: 0
    - stream: 0
      offset: 0
      format: 0
      dimension: 0
    - stream: 0
      offset: 0
      format: 0
      dimension: 0
    - stream: 0
      offset: 0
      format: 0
      dimension: 0
    - stream: 0
      offset: 0
      format: 0
      dimension: 0
    m_DataSize: 0
    _typelessdata: 
  m_CompressedMesh:
    m_Vertices:
      m_NumItems: 0
      m_Range: 0
      m_Start: 0
      m_Data: 
      m_BitSize: 0
    m_UV:
      m_NumItems: 0
      m_Range: 0
      m_Start: 0
      m_Data: 
      m_BitSize: 0
    m_Normals:
      m_NumItems: 0
      m_Range: 0
      m_Start: 0
      m_Data: 
      m_BitSize: 0
    m_Tangents:
      m_NumItems: 0
      m_Range: 0
      m_Start: 0
      m_Data: 
      m_BitSize: 0
    m_Weights:
      m_NumItems: 0
      m_Data: 
      m_BitSize: 0
    m_NormalSigns:
      m_NumItems: 0
      m_Data: 
      m_BitSize: 0
    m_TangentSigns:
      m_NumItems: 0
      m_Data: 
      m_BitSize: 0
    m_FloatColors:
      m_NumItems: 0
      m_Range: 0
      m_Start: 0
      m_Data: 
      m_BitSize: 0
    m_BoneIndices:
      m_NumItems: 0
      m_Data: 
      m_BitSize: 0
    m_Triangles:
      m_NumItems: 0
      m_Data: 
      m_BitSize: 0
    m_UVInfo: 0
  m_LocalAABB:
    m_Center: {x: 0, y: 0, z: 0}
    m_Extent: {x: 0, y: 0, z: 0}
  m_MeshUsageFlags: 0
  m_BakedConvexCollisionMesh: 
  m_BakedTriangleCollisionMesh: 
  m_MeshMetrics[0]: 1
  m_MeshMetrics[1]: 1
  m_MeshOptimizationFlags: 1
  m_StreamData:
    serializedVersion: 2
    offset: 0
    size: 0
    path: 
