%YAML 1.1
%TAG !u! tag:unity3d.com,2011:
--- !u!1 &100000
GameObject:
  m_ObjectHideFlags: 0
  m_CorrespondingSourceObject: {fileID: 0}
  m_PrefabInstance: {fileID: 0}
  m_PrefabAsset: {fileID: 0}
  serializedVersion: 6
  m_Component:
  - component: {fileID: 400000}
  - component: {fileID: 11400000}
  - component: {fileID: 2180400261062786499}
  - component: {fileID: 3831207390674235781}
  m_Layer: 0
  m_Name: RopePrefab
  m_TagString: Untagged
  m_Icon: {fileID: 0}
  m_NavMeshLayer: 0
  m_StaticEditorFlags: 0
  m_IsActive: 1
--- !u!4 &400000
Transform:
  m_ObjectHideFlags: 0
  m_CorrespondingSourceObject: {fileID: 0}
  m_PrefabInstance: {fileID: 0}
  m_PrefabAsset: {fileID: 0}
  m_GameObject: {fileID: 100000}
  m_LocalRotation: {x: 0, y: 0, z: 0, w: 1}
  m_LocalPosition: {x: 90.73911, y: 1.5971546, z: -151.11679}
  m_LocalScale: {x: 1, y: 1, z: 1}
  m_Children: []
  m_Father: {fileID: 0}
  m_RootOrder: 0
  m_LocalEulerAnglesHint: {x: 0, y: 0, z: 0}
--- !u!114 &11400000
MonoBehaviour:
  m_ObjectHideFlags: 0
  m_CorrespondingSourceObject: {fileID: 0}
  m_PrefabInstance: {fileID: 0}
  m_PrefabAsset: {fileID: 0}
  m_GameObject: {fileID: 100000}
  m_Enabled: 1
  m_EditorHideFlags: 0
  m_Script: {fileID: 11500000, guid: 668f4dffd34221246ad078e09d5bbd37, type: 3}
  m_Name: 
  m_EditorClassIdentifier: 
  _body: 0
  _material: {fileID: 0}
  _frontEnd: {fileID: 0}
  _backEnd: {fileID: 0}
  Threshold: 1.77
  WrapDistance: 0.03
  _pieceInstance: {fileID: 0}
  BendInstance: {fileID: 0}
  _width: 0.03
  ExtendAxis: 0
  TexturingMode: 0
  UVLocation: 0
  Tiling: 1
  _anchoringMode: 0
  ElasticModulus: 0.001
  _ignoreLayer: Ignore Raycast
  IgnoreLayer:
    serializedVersion: 2
    m_Bits: 4
  MaxPieceCount: 200
  NotBendOnObject: 0
  _frontPiece: {fileID: 0}
  _backPiece: {fileID: 0}
  _pieceInstanceSize: {x: 0, y: 0, z: 0}
  _pieceInstanceRatio: {x: 1, y: 1, z: 1}
  _bendInstanceRatio: 1
  _initProfile: []
  _workProfile: []
  _baseProfile: []
  _workMaterial: {fileID: 0}
  MeshConfiguration:
    BendCrossectionsNumber: 0
    VertexNumber: 3
    FlipNormals: 0
    Profile: []
  _triangulationPath1: []
  _triangulationPath2: []
  _prevVect: {x: 0, y: 0, z: 0}
  _rotation: {x: 0, y: 0, z: 0, w: 1}
--- !u!23 &2180400261062786499
MeshRenderer:
  m_ObjectHideFlags: 0
  m_CorrespondingSourceObject: {fileID: 0}
  m_PrefabInstance: {fileID: 0}
  m_PrefabAsset: {fileID: 0}
  m_GameObject: {fileID: 100000}
  m_Enabled: 1
  m_CastShadows: 1
  m_ReceiveShadows: 1
  m_DynamicOccludee: 1
  m_MotionVectors: 1
  m_LightProbeUsage: 1
  m_ReflectionProbeUsage: 1
  m_RayTracingMode: 2
  m_RayTraceProcedural: 0
  m_RenderingLayerMask: 1
  m_RendererPriority: 0
  m_Materials:
  - {fileID: 0}
  m_StaticBatchInfo:
    firstSubMesh: 0
    subMeshCount: 0
  m_StaticBatchRoot: {fileID: 0}
  m_ProbeAnchor: {fileID: 0}
  m_LightProbeVolumeOverride: {fileID: 0}
  m_ScaleInLightmap: 1
  m_ReceiveGI: 1
  m_PreserveUVs: 0
  m_IgnoreNormalsForChartDetection: 0
  m_ImportantGI: 0
  m_StitchLightmapSeams: 1
  m_SelectedEditorRenderState: 3
  m_MinimumChartSize: 4
  m_AutoUVMaxDistance: 0.5
  m_AutoUVMaxAngle: 89
  m_LightmapParameters: {fileID: 0}
  m_SortingLayerID: 0
  m_SortingLayer: 0
  m_SortingOrder: 0
  m_AdditionalVertexStreams: {fileID: 0}
--- !u!33 &3831207390674235781
MeshFilter:
  m_ObjectHideFlags: 0
  m_CorrespondingSourceObject: {fileID: 0}
  m_PrefabInstance: {fileID: 0}
  m_PrefabAsset: {fileID: 0}
  m_GameObject: {fileID: 100000}
  m_Mesh: {fileID: 0}
